<?xml version="1.0" ?>
<sdf version="1.4">
  <world name="maze">
    <include>
      <uri>model://ground_plane</uri>
    </include>
    <include>
      <uri>model://sun</uri>
    </include>
  </world>
</sdf>