%TF.GenerationSoftware,KiCad,Pcbnew,6.0.6-3a73a75311~116~ubuntu20.04.1*%
%TF.CreationDate,2022-08-14T13:15:37+02:00*%
%TF.ProjectId,adaptor_power_raspi,61646170-746f-4725-9f70-6f7765725f72,rev?*%
%TF.SameCoordinates,Original*%
%TF.FileFunction,Copper,L1,Top*%
%TF.FilePolarity,Positive*%
%FSLAX46Y46*%
G04 Gerber Fmt 4.6, Leading zero omitted, Abs format (unit mm)*
G04 Created by KiCad (PCBNEW 6.0.6-3a73a75311~116~ubuntu20.04.1) date 2022-08-14 13:15:37*
%MOMM*%
%LPD*%
G01*
G04 APERTURE LIST*
%TA.AperFunction,ComponentPad*%
%ADD10R,1.700000X1.700000*%
%TD*%
%TA.AperFunction,ComponentPad*%
%ADD11O,1.700000X1.700000*%
%TD*%
%TA.AperFunction,Conductor*%
%ADD12C,1.000000*%
%TD*%
G04 APERTURE END LIST*
D10*
%TO.P,J1,1,Pin_1*%
%TO.N,Net-(J1-Pad1)*%
X42190709Y-33777940D03*
D11*
%TO.P,J1,2,Pin_2*%
%TO.N,Net-(J1-Pad2)*%
X42190709Y-19768940D03*
%TO.P,J1,3,Pin_3*%
X23775709Y-19768940D03*
%TO.P,J1,4,Pin_4*%
%TO.N,Net-(J1-Pad4)*%
X23902709Y-33777940D03*
%TD*%
D10*
%TO.P,J2,1,Pin_1*%
%TO.N,Net-(J1-Pad4)*%
X18210000Y-34290000D03*
D11*
%TO.P,J2,2,Pin_2*%
%TO.N,Net-(J1-Pad2)*%
X18210000Y-31750000D03*
%TO.P,J2,3,Pin_3*%
X18210000Y-29210000D03*
%TO.P,J2,4,Pin_4*%
%TO.N,Net-(J1-Pad1)*%
X18210000Y-26670000D03*
%TD*%
D12*
%TO.N,Net-(J1-Pad1)*%
X42190709Y-33777940D02*
X44512812Y-31455837D01*
X44512812Y-31455837D02*
X44512812Y-17842812D01*
X44512812Y-17842812D02*
X43180000Y-16510000D01*
X43180000Y-16510000D02*
X22860000Y-16510000D01*
X22860000Y-16510000D02*
X18210000Y-21160000D01*
X18210000Y-21160000D02*
X18210000Y-26670000D01*
%TO.N,Net-(J1-Pad2)*%
X23775709Y-19768940D02*
X29761060Y-19768940D01*
X18210000Y-29210000D02*
X18210000Y-31750000D01*
X29761060Y-19768940D02*
X20320000Y-29210000D01*
X42190709Y-19768940D02*
X29761060Y-19768940D01*
X20320000Y-29210000D02*
X18210000Y-29210000D01*
%TO.N,Net-(J1-Pad4)*%
X23902709Y-33777940D02*
X18722060Y-33777940D01*
X18722060Y-33777940D02*
X18210000Y-34290000D01*
%TD*%
M02*
