
G20
G90
G94
F15.00
G00 Z0.1000
M03
G4 P1
G00 X0.1920Y0.1120
G01 Z-0.0020
G01 X0.1922Y0.0662
G01 X0.1936Y0.0586
G01 X0.1964Y0.0518
G01 X0.2029Y0.0431
G01 X0.2431Y0.0029
G01 X0.2515Y-0.0034
G01 X0.2586Y-0.0064
G01 X0.2695Y-0.0080
G01 X0.6132Y-0.0078
G01 X0.6242Y-0.0050
G01 X0.6304Y-0.0017
G01 X0.6361Y0.0030
G01 X0.7762Y0.1431
G01 X0.7826Y0.1518
G01 X0.7863Y0.1622
G01 X0.7871Y0.1695
G01 X0.7871Y1.0236
G01 X0.7901Y1.0351
G01 X0.7901Y1.0439
G01 X0.7872Y1.0551
G01 X0.7813Y1.0651
G01 X0.7751Y1.0713
G01 X0.7651Y1.0772
G01 X0.7575Y1.0795
G01 X0.7495Y1.0803
G01 X0.7416Y1.0795
G01 X0.7336Y1.0771
G01 X0.6951Y1.0771
G01 X0.6871Y1.0851
G01 X0.6871Y1.7295
G01 X0.6864Y1.7365
G01 X0.6826Y1.7472
G01 X0.6763Y1.7558
G01 X0.5671Y1.8651
G01 X0.5671Y1.9520
G01 X0.5692Y1.9575
G01 X0.5708Y1.9655
G01 X0.5702Y1.9776
G01 X0.5661Y1.9891
G01 X0.5588Y1.9988
G01 X0.5491Y2.0061
G01 X0.5376Y2.0102
G01 X0.5295Y2.0110
G01 X0.5214Y2.0102
G01 X0.5137Y2.0078
G01 X0.5068Y2.0042
G01 X0.4972Y1.9955
G01 X0.4930Y1.9891
G01 X0.4897Y1.9812
G01 X0.4881Y1.9695
G01 X0.4889Y1.9614
G01 X0.4920Y1.9520
G01 X0.4922Y1.8458
G01 X0.4950Y1.8348
G01 X0.4983Y1.8287
G01 X0.5027Y1.8233
G01 X0.6120Y1.7140
G01 X0.6120Y1.0695
G01 X0.6127Y1.0626
G01 X0.6150Y1.0548
G01 X0.6205Y1.0457
G01 X0.6530Y1.0130
G01 X0.6590Y1.0081
G01 X0.6683Y1.0037
G01 X0.6758Y1.0022
G01 X0.7120Y1.0020
G01 X0.7120Y0.1851
G01 X0.5940Y0.0671
G01 X0.2851Y0.0671
G01 X0.2671Y0.0851
G01 X0.2671Y0.1120
G01 X0.2702Y0.1214
G01 X0.2710Y0.1297
G01 X0.2701Y0.1380
G01 X0.2671Y0.1471
G01 X0.2671Y0.2297
G01 X0.2654Y0.2404
G01 X0.2605Y0.2507
G01 X0.2561Y0.2561
G01 X0.2504Y0.2607
G01 X0.2439Y0.2642
G01 X0.2372Y0.2662
G01 X0.2255Y0.2668
G01 X0.2148Y0.2640
G01 X0.2087Y0.2607
G01 X0.2033Y0.2563
G01 X0.1964Y0.2472
G01 X0.1927Y0.2368
G01 X0.1920Y0.2295
G01 X0.1920Y0.1471
G01 X0.1889Y0.1376
G01 X0.1881Y0.1295
G01 X0.1889Y0.1214
G01 X0.1920Y0.1120
G00 Z0.1000
G00 X-0.0080Y0.5891
G01 Z-0.0020
G01 X-0.0073Y0.5822
G01 X-0.0051Y0.5752
G01 X-0.0017Y0.5687
G01 X0.0029Y0.5631
G01 X0.2920Y0.2740
G01 X0.2920Y0.1471
G01 X0.2889Y0.1376
G01 X0.2881Y0.1295
G01 X0.2900Y0.1171
G01 X0.2948Y0.1068
G01 X0.3002Y0.1002
G01 X0.3068Y0.0948
G01 X0.3171Y0.0900
G01 X0.3259Y0.0882
G01 X0.3372Y0.0888
G01 X0.3454Y0.0912
G01 X0.3529Y0.0953
G01 X0.3613Y0.1029
G01 X0.3661Y0.1100
G01 X0.3693Y0.1179
G01 X0.3710Y0.1291
G01 X0.3702Y0.1376
G01 X0.3671Y0.1471
G01 X0.3670Y0.2899
G01 X0.3655Y0.3000
G01 X0.3626Y0.3072
G01 X0.3561Y0.3161
G01 X0.0671Y0.6051
G01 X0.0671Y1.9140
G01 X0.1851Y2.0320
G01 X0.3995Y2.0320
G01 X0.3950Y2.0242
G01 X0.3927Y2.0168
G01 X0.3920Y2.0097
G01 X0.3920Y1.9871
G01 X0.3889Y1.9780
G01 X0.3881Y1.9699
G01 X0.3889Y1.9614
G01 X0.3920Y1.9520
G01 X0.3922Y1.8655
G01 X0.3936Y1.8586
G01 X0.3963Y1.8522
G01 X0.4030Y1.8430
G01 X0.4122Y1.8363
G01 X0.4186Y1.8336
G01 X0.4255Y1.8322
G01 X0.4368Y1.8327
G01 X0.4476Y1.8366
G01 X0.4533Y1.8405
G01 X0.4583Y1.8454
G01 X0.4642Y1.8552
G01 X0.4663Y1.8622
G01 X0.4671Y1.8693
G01 X0.4671Y1.9520
G01 X0.4701Y1.9611
G01 X0.4710Y1.9693
G01 X0.4702Y1.9776
G01 X0.4671Y1.9871
G01 X0.4671Y1.9940
G01 X0.5051Y2.0320
G01 X0.6340Y2.0320
G01 X0.7120Y1.9540
G01 X0.7120Y1.1555
G01 X0.7095Y1.1471
G01 X0.7089Y1.1359
G01 X0.7105Y1.1277
G01 X0.7138Y1.1200
G01 X0.7204Y1.1110
G01 X0.7269Y1.1056
G01 X0.7339Y1.1019
G01 X0.7420Y1.0995
G01 X0.7531Y1.0989
G01 X0.7614Y1.1005
G01 X0.7722Y1.1056
G01 X0.7813Y1.1140
G01 X0.7855Y1.1203
G01 X0.7884Y1.1273
G01 X0.7903Y1.1393
G01 X0.7895Y1.1475
G01 X0.7871Y1.1555
G01 X0.7869Y1.9732
G01 X0.7840Y1.9842
G01 X0.7807Y1.9904
G01 X0.7762Y1.9959
G01 X0.6759Y2.0962
G01 X0.6704Y2.1007
G01 X0.6642Y2.1040
G01 X0.6568Y2.1063
G01 X0.6495Y2.1071
G01 X0.1695Y2.1071
G01 X0.1618Y2.1062
G01 X0.1518Y2.1026
G01 X0.1431Y2.0962
G01 X0.0029Y1.9559
G01 X-0.0017Y1.9504
G01 X-0.0050Y1.9442
G01 X-0.0073Y1.9368
G01 X-0.0080Y1.9295
G01 X-0.0080Y0.5891
G00 Z0.1000
G00 X0.1120Y0.7236
G01 Z-0.0020
G01 X0.1120Y0.5893
G01 X0.1135Y0.5790
G01 X0.1164Y0.5718
G01 X0.1230Y0.5630
G01 X0.3920Y0.2940
G01 X0.3920Y0.1471
G01 X0.3889Y0.1376
G01 X0.3881Y0.1295
G01 X0.3898Y0.1175
G01 X0.3932Y0.1096
G01 X0.3999Y0.1005
G01 X0.4065Y0.0951
G01 X0.4137Y0.0912
G01 X0.4214Y0.0889
G01 X0.4299Y0.0881
G01 X0.4412Y0.0897
G01 X0.4491Y0.0930
G01 X0.4586Y0.0999
G01 X0.4640Y0.1065
G01 X0.4691Y0.1171
G01 X0.4708Y0.1259
G01 X0.4702Y0.1376
G01 X0.4671Y0.1471
G01 X0.4670Y0.3099
G01 X0.4655Y0.3200
G01 X0.4626Y0.3272
G01 X0.4561Y0.3361
G01 X0.1871Y0.6051
G01 X0.1871Y0.7236
G01 X0.1895Y0.7316
G01 X0.1903Y0.7399
G01 X0.1895Y0.7475
G01 X0.1873Y0.7548
G01 X0.1808Y0.7657
G01 X0.1754Y0.7710
G01 X0.1687Y0.7755
G01 X0.1614Y0.7785
G01 X0.1539Y0.7801
G01 X0.1412Y0.7794
G01 X0.1339Y0.7772
G01 X0.1272Y0.7736
G01 X0.1178Y0.7651
G01 X0.1136Y0.7587
G01 X0.1105Y0.7514
G01 X0.1089Y0.7435
G01 X0.1089Y0.7359
G01 X0.1120Y0.7236
G00 Z0.1000
G00 X0.2120Y0.7236
G01 Z-0.0020
G01 X0.2122Y0.6262
G01 X0.2147Y0.6155
G01 X0.2186Y0.6084
G01 X0.2230Y0.6030
G01 X0.4920Y0.3340
G01 X0.4920Y0.1699
G01 X0.4892Y0.1671
G01 X0.4881Y0.1630
G01 X0.4881Y0.0961
G01 X0.4892Y0.0920
G01 X0.4919Y0.0892
G01 X0.4957Y0.0881
G01 X0.5630Y0.0881
G01 X0.5671Y0.0892
G01 X0.5699Y0.0920
G01 X0.5710Y0.0957
G01 X0.5710Y0.1630
G01 X0.5699Y0.1671
G01 X0.5671Y0.1699
G01 X0.5670Y0.3499
G01 X0.5655Y0.3600
G01 X0.5626Y0.3672
G01 X0.5561Y0.3761
G01 X0.2871Y0.6451
G01 X0.2871Y0.7236
G01 X0.2896Y0.7320
G01 X0.2901Y0.7431
G01 X0.2870Y0.7555
G01 X0.2834Y0.7622
G01 X0.2784Y0.7684
G01 X0.2722Y0.7734
G01 X0.2655Y0.7770
G01 X0.2535Y0.7801
G01 X0.2412Y0.7794
G01 X0.2339Y0.7772
G01 X0.2269Y0.7734
G01 X0.2178Y0.7651
G01 X0.2136Y0.7587
G01 X0.2105Y0.7514
G01 X0.2089Y0.7435
G01 X0.2089Y0.7359
G01 X0.2120Y0.7236
G00 Z0.1000
G00 X0.1920Y1.9292
G01 Z-0.0020
G01 X0.1920Y1.7293
G01 X0.1927Y1.7222
G01 X0.1947Y1.7155
G01 X0.1983Y1.7087
G01 X0.2029Y1.7031
G01 X0.3120Y1.5940
G01 X0.3120Y0.7555
G01 X0.3095Y0.7475
G01 X0.3088Y0.7391
G01 X0.3096Y0.7312
G01 X0.3134Y0.7207
G01 X0.3180Y0.7137
G01 X0.3234Y0.7083
G01 X0.3303Y0.7036
G01 X0.3377Y0.7005
G01 X0.3455Y0.6989
G01 X0.3539Y0.6990
G01 X0.3614Y0.7005
G01 X0.3687Y0.7036
G01 X0.3754Y0.7080
G01 X0.3808Y0.7134
G01 X0.3873Y0.7243
G01 X0.3895Y0.7316
G01 X0.3903Y0.7393
G01 X0.3895Y0.7475
G01 X0.3871Y0.7555
G01 X0.3868Y1.6136
G01 X0.3854Y1.6204
G01 X0.3828Y1.6269
G01 X0.3763Y1.6358
G01 X0.2671Y1.7451
G01 X0.2671Y1.9292
G01 X0.2699Y1.9320
G01 X0.2710Y1.9361
G01 X0.2710Y2.0034
G01 X0.2702Y2.0064
G01 X0.2684Y2.0089
G01 X0.2634Y2.0110
G01 X0.1961Y2.0110
G01 X0.1926Y2.0102
G01 X0.1901Y2.0084
G01 X0.1881Y2.0034
G01 X0.1881Y1.9361
G01 X0.1892Y1.9320
G01 X0.1920Y1.9292
G00 Z0.1000
G00 X0.2920Y1.9520
G01 Z-0.0020
G01 X0.2920Y1.8093
G01 X0.2927Y1.8022
G01 X0.2949Y1.7952
G01 X0.2983Y1.7887
G01 X0.3029Y1.7831
G01 X0.4120Y1.6740
G01 X0.4120Y0.7555
G01 X0.4095Y0.7475
G01 X0.4088Y0.7391
G01 X0.4095Y0.7316
G01 X0.4120Y0.7236
G01 X0.4158Y0.7166
G01 X0.4234Y0.7083
G01 X0.4303Y0.7036
G01 X0.4377Y0.7005
G01 X0.4455Y0.6989
G01 X0.4539Y0.6990
G01 X0.4614Y0.7005
G01 X0.4687Y0.7036
G01 X0.4754Y0.7080
G01 X0.4808Y0.7134
G01 X0.4873Y0.7243
G01 X0.4895Y0.7316
G01 X0.4903Y0.7393
G01 X0.4895Y0.7475
G01 X0.4871Y0.7555
G01 X0.4868Y1.6936
G01 X0.4854Y1.7004
G01 X0.4828Y1.7069
G01 X0.4763Y1.7158
G01 X0.3671Y1.8251
G01 X0.3671Y1.9520
G01 X0.3702Y1.9614
G01 X0.3710Y1.9697
G01 X0.3691Y1.9819
G01 X0.3661Y1.9891
G01 X0.3618Y1.9955
G01 X0.3522Y2.0042
G01 X0.3454Y2.0078
G01 X0.3372Y2.0103
G01 X0.3295Y2.0110
G01 X0.3214Y2.0102
G01 X0.3137Y2.0078
G01 X0.3068Y2.0042
G01 X0.2972Y1.9955
G01 X0.2930Y1.9891
G01 X0.2898Y1.9816
G01 X0.2883Y1.9736
G01 X0.2882Y1.9659
G01 X0.2897Y1.9579
G01 X0.2920Y1.9520
G00 Z0.1000
G00 Z0.1000
G00 X0Y0
M05
